{
    "results": [
        {
            "vote_count": 703,
            "id": 420817,
            "video": false,
            "vote_average": 7.2,
            "title": "Aladdin",
            "popularity": 501.86,
            "poster_path": "/3iYQTLGoy7QnjcUYRJy4YrAgGvp.jpg",
            "original_language": "en",
            "original_title": "Aladdin",
            "genre_ids": [
                12,
                14,
                10749,
                35,
                10751
            ],
            "backdrop_path": "/v4yVTbbl8dE1UP2dWu5CLyaXOku.jpg",
            "adult": false,
            "overview": "A kindhearted street urchin named Aladdin embarks on a magical adventure after finding a lamp that releases a wisecracking genie while a power-hungry Grand Vizier vies for the same lamp that has the power to make their deepest wishes come true.",
            "release_date": "2019-05-22"
        },
        {
            "vote_count": 680,
            "id": 458156,
            "video": false,
            "vote_average": 7.3,
            "title": "John Wick: Chapter 3 – Parabellum",
            "popularity": 317.824,
            "poster_path": "/ziEuG1essDuWuC5lpWUaw1uXY2O.jpg",
            "original_language": "en",
            "original_title": "John Wick: Chapter 3 – Parabellum",
            "genre_ids": [
                80,
                28,
                53
            ],
            "backdrop_path": "/vVpEOvdxVBP2aV166j5Xlvb5Cdc.jpg",
            "adult": false,
            "overview": "Super-assassin John Wick returns with a $14 million price tag on his head and an army of bounty-hunting killers on his trail. After killing a member of the shadowy international assassin’s guild, the High Table, John Wick is excommunicado, but the world’s most ruthless hit men and women await his every turn.",
            "release_date": "2019-05-15"
        },
        {
            "vote_count": 6211,
            "id": 299534,
            "video": false,
            "vote_average": 8.5,
            "title": "Avengers: Endgame",
            "popularity": 205.207,
            "poster_path": "/or06FN3Dka5tukK1e9sl16pB3iy.jpg",
            "original_language": "en",
            "original_title": "Avengers: Endgame",
            "genre_ids": [
                12,
                878,
                28
            ],
            "backdrop_path": "/7RyHsO4yDXtBv1zUU3mTpHeQ0d5.jpg",
            "adult": false,
            "overview": "After the devastating events of Avengers: Infinity War, the universe is in ruins due to the efforts of the Mad Titan, Thanos. With the help of remaining allies, the Avengers must assemble once more in order to undo Thanos' actions and restore order to the universe once and for all, no matter what consequences may be in store.",
            "release_date": "2019-04-24"
        },
        {
            "vote_count": 37,
            "id": 373571,
            "video": false,
            "vote_average": 6.3,
            "title": "Godzilla: King of the Monsters",
            "popularity": 139.265,
            "poster_path": "/pU3bnutJU91u3b4IeRPQTOP8jhV.jpg",
            "original_language": "en",
            "original_title": "Godzilla: King of the Monsters",
            "genre_ids": [
                28,
                878,
                53
            ],
            "backdrop_path": "/mzRJpkWPjXdXak0WCc8ZxVH4hug.jpg",
            "adult": false,
            "overview": "The new story follows the heroic efforts of the crypto-zoological agency Monarch as its members face off against a battery of god-sized monsters, including the mighty Godzilla, who collides with Mothra, Rodan, and his ultimate nemesis, the three-headed King Ghidorah. When these ancient super-species—thought to be mere myths—rise again, they all vie for supremacy, leaving humanity’s very existence hanging in the balance.",
            "release_date": "2019-05-29"
        },
        {
            "vote_count": 952,
            "id": 447404,
            "video": false,
            "vote_average": 7,
            "title": "Pokémon Detective Pikachu",
            "popularity": 123.582,
            "poster_path": "/wgQ7APnFpf1TuviKHXeEe3KnsTV.jpg",
            "original_language": "en",
            "original_title": "Pokémon Detective Pikachu",
            "genre_ids": [
                9648,
                10751,
                35,
                878,
                28,
                12
            ],
            "backdrop_path": "/nDP33LmQwNsnPv29GQazz59HjJI.jpg",
            "adult": false,
            "overview": "In a world where people collect pocket-size monsters (Pokémon) to do battle, a boy comes across an intelligent monster who seeks to be a detective.",
            "release_date": "2019-05-03"
        },
        {
            "vote_count": 130,
            "id": 531309,
            "video": false,
            "vote_average": 5.6,
            "title": "Brightburn",
            "popularity": 122.713,
            "poster_path": "/sJWwkYc9ajwnPRSkqj8Aue5JbKz.jpg",
            "original_language": "en",
            "original_title": "Brightburn",
            "genre_ids": [
                27,
                878,
                18,
                53
            ],
            "backdrop_path": "/uHEI6v8ApQusjbaRZ8o7WcLYeWb.jpg",
            "adult": false,
            "overview": "What if a child from another world crash-landed on Earth, but instead of becoming a hero to mankind, he proved to be something far more sinister?",
            "release_date": "2019-05-09"
        },
        {
            "vote_count": 304,
            "id": 480414,
            "video": false,
            "vote_average": 5.5,
            "title": "The Curse of La Llorona",
            "popularity": 90.07,
            "poster_path": "/jhZlXSnFUpNiLAek9EkPrtLEWQI.jpg",
            "original_language": "en",
            "original_title": "The Curse of La Llorona",
            "genre_ids": [
                53,
                27,
                9648
            ],
            "backdrop_path": "/u2vGggeMPAkhEtD7bYGfeThsQiM.jpg",
            "adult": false,
            "overview": "A social worker dealing with the disappearance of two children fears for her own family after beginning the investigation.",
            "release_date": "2019-04-17"
        },
        {
            "vote_count": 621,
            "id": 438650,
            "video": false,
            "vote_average": 5.3,
            "title": "Cold Pursuit",
            "popularity": 83.235,
            "poster_path": "/otK0H9H1w3JVGJjad5Kzx3Z9kt2.jpg",
            "original_language": "en",
            "original_title": "Cold Pursuit",
            "genre_ids": [
                28,
                18,
                53,
                80
            ],
            "backdrop_path": "/aiM3XxYE2JvW1vJ4AC6cI1RjAoT.jpg",
            "adult": false,
            "overview": "The quiet family life of Nels Coxman, a snowplow driver, is upended after his son's murder. Nels begins a vengeful hunt for Viking, the drug lord he holds responsible for the killing, eliminating Viking's associates one by one. As Nels draws closer to Viking, his actions bring even more unexpected and violent consequences, as he proves that revenge is all in the execution.",
            "release_date": "2019-02-07"
        },
        {
            "vote_count": 156,
            "id": 449562,
            "video": false,
            "vote_average": 6.1,
            "title": "The Hustle",
            "popularity": 77.854,
            "poster_path": "/qibqW5Dnvqp4hcEnoTARbQgxwJy.jpg",
            "original_language": "en",
            "original_title": "The Hustle",
            "genre_ids": [
                35
            ],
            "backdrop_path": "/s6awXOxTKYQLSktiIJfI3969dZH.jpg",
            "adult": false,
            "overview": "Two female scam artists, one low rent and the other high class, compete to swindle a naïve tech prodigy out of his fortune. A remake of the 1988 comedy \"Dirty Rotten Scoundrels.\"",
            "release_date": "2019-05-09"
        },
        {
            "vote_count": 558,
            "id": 527641,
            "video": false,
            "vote_average": 8.1,
            "title": "Five Feet Apart",
            "popularity": 75.247,
            "poster_path": "/kreTuJBkUjVWePRfhHZuYfhNE1T.jpg",
            "original_language": "en",
            "original_title": "Five Feet Apart",
            "genre_ids": [
                10749,
                18
            ],
            "backdrop_path": "/27ZkYMWynuK2qiDP6awc3MsCaOs.jpg",
            "adult": false,
            "overview": "Seventeen-year-old Stella spends most of her time in the hospital as a cystic fibrosis patient. Her life is full of routines, boundaries and self-control -- all of which get put to the test when she meets Will, an impossibly charming teen who has the same illness. There's an instant flirtation, though restrictions dictate that they must maintain a safe distance between them. As their connection intensifies, so does the temptation to throw the rules out the window and embrace that attraction.",
            "release_date": "2019-03-15"
        },
        {
            "vote_count": 649,
            "id": 157433,
            "video": false,
            "vote_average": 5.8,
            "title": "Pet Sematary",
            "popularity": 70.774,
            "poster_path": "/7SPhr7Qj39vbnfF9O2qHRYaKHAL.jpg",
            "original_language": "en",
            "original_title": "Pet Sematary",
            "genre_ids": [
                53,
                9648,
                27
            ],
            "backdrop_path": "/n2aX63BmW7zIKgKJ58e6rKlSsdi.jpg",
            "adult": false,
            "overview": "Louis Creed, his wife Rachel and their two children Gage and Ellie move to a rural home where they are welcomed and enlightened about the eerie 'Pet Sematary' located nearby. After the tragedy of their cat being killed by a truck, Louis resorts to burying it in the mysterious pet cemetery, which is definitely not as it seems, as it proves to the Creeds that sometimes dead is better.",
            "release_date": "2019-04-04"
        },
        {
            "vote_count": 441,
            "id": 456740,
            "video": false,
            "vote_average": 5,
            "title": "Hellboy",
            "popularity": 68.819,
            "poster_path": "/bk8LyaMqUtaQ9hUShuvFznQYQKR.jpg",
            "original_language": "en",
            "original_title": "Hellboy",
            "genre_ids": [
                28,
                12,
                14
            ],
            "backdrop_path": "/5BkSkNtfrnTuKOtTaZhl8avn4wU.jpg",
            "adult": false,
            "overview": "Hellboy comes to England, where he must defeat Nimue, Merlin's consort and the Blood Queen. But their battle will bring about the end of the world, a fate he desperately tries to turn away.",
            "release_date": "2019-04-10"
        },
        {
            "vote_count": 1008,
            "id": 537915,
            "video": false,
            "vote_average": 5.9,
            "title": "After",
            "popularity": 66.904,
            "poster_path": "/u3B2YKUjWABcxXZ6Nm9h10hLUbh.jpg",
            "original_language": "en",
            "original_title": "After",
            "genre_ids": [
                18,
                10749
            ],
            "backdrop_path": "/997ToEZvF2Obp9zNZbY5ELVnmrW.jpg",
            "adult": false,
            "overview": "A young woman falls for a guy with a dark secret and the two embark on a rocky relationship.",
            "release_date": "2019-04-11"
        },
        {
            "vote_count": 57,
            "id": 504608,
            "video": false,
            "vote_average": 7.4,
            "title": "Rocketman",
            "popularity": 59.164,
            "poster_path": "/f4FF18ia7yTvHf2izNrHqBmgH8U.jpg",
            "original_language": "en",
            "original_title": "Rocketman",
            "genre_ids": [
                10402,
                18
            ],
            "backdrop_path": "/oAr5bgf49vxga9etWoQpAeRMvhp.jpg",
            "adult": false,
            "overview": "The story of Elton John's life, from his years as a prodigy at the Royal Academy of Music through his influential and enduring musical partnership with Bernie Taupin.",
            "release_date": "2019-05-22"
        },
        {
            "vote_count": 115,
            "id": 505600,
            "video": false,
            "vote_average": 7,
            "title": "Booksmart",
            "popularity": 56.243,
            "poster_path": "/Awyg5IdELQV3sBoErhJ9QVcX8TA.jpg",
            "original_language": "en",
            "original_title": "Booksmart",
            "genre_ids": [
                35,
                18,
                10749,
                10752,
                37
            ],
            "backdrop_path": "/wcAqndL2MkIjPrCrYeuE794weNE.jpg",
            "adult": false,
            "overview": "Two academic teenage superstars realize, on the eve of their high school graduation, that they should have worked less and played more. Determined to never fall short of their peers, the girls set out on a mission to cram four years of fun into one night.",
            "release_date": "2019-05-24"
        },
        {
            "vote_count": 5,
            "id": 502416,
            "video": false,
            "vote_average": 4.8,
            "title": "Ma",
            "popularity": 54.684,
            "poster_path": "/6n7ASmQ1wY2cxTubFFGlcvPpyk7.jpg",
            "original_language": "en",
            "original_title": "Ma",
            "genre_ids": [
                53,
                27,
                35
            ],
            "backdrop_path": "/mBOv5YrX5QGr5CusK0PKSHuxOt9.jpg",
            "adult": false,
            "overview": "Sue Ann is a loner who keeps to herself in her quiet Ohio town. One day, she is asked by Maggie, a new teenager in town, to buy some booze for her and her friends, and Sue Ann sees the chance to make some unsuspecting, if younger, friends of her own.  She offers the kids the chance to avoid drinking and driving by hanging out in the basement of her home. But there are some house rules: One of the kids has to stay sober. Don’t curse. Never go upstairs. And call her “Ma.”  But as Ma’s hospitality starts to curdle into obsession, what began as a teenage dream turns into a terrorizing nightmare, and Ma’s place goes from the best place in town to the worst place on earth.",
            "release_date": "2019-05-29"
        },
        {
            "vote_count": 70,
            "id": 526050,
            "video": false,
            "vote_average": 6.2,
            "title": "Little",
            "popularity": 52.792,
            "poster_path": "/4MDB6jJl3U7xK1Gw64zIqt9pQA4.jpg",
            "original_language": "en",
            "original_title": "Little",
            "genre_ids": [
                35,
                14
            ],
            "backdrop_path": "/tmM78qRhpg0i2Cky8Q8hXKASOXY.jpg",
            "adult": false,
            "overview": "A woman receives the chance to relive the life of her younger self, at a point in her life when the pressures of adulthood become too much for her to bear.",
            "release_date": "2019-04-04"
        },
        {
            "vote_count": 8,
            "id": 496243,
            "video": false,
            "vote_average": 9.2,
            "title": "Parasite",
            "popularity": 50.73,
            "poster_path": "/7IiTTgloJzvGI1TAYymCfbfl3vT.jpg",
            "original_language": "ko",
            "original_title": "기생충",
            "genre_ids": [
                35,
                18
            ],
            "backdrop_path": "/ny5aCtglk2kceGAuAdiyqbhBBAf.jpg",
            "adult": false,
            "overview": "All unemployed, Ki-taek's family takes peculiar interest in the wealthy and glamorous Parks for their livelihood until they get entangled in an unexpected incident.",
            "release_date": "2019-05-30"
        },
        {
            "vote_count": 317,
            "id": 487297,
            "video": false,
            "vote_average": 5.8,
            "title": "What Men Want",
            "popularity": 45.56,
            "poster_path": "/30IiwvIRqPGjUV0bxJkZfnSiCL.jpg",
            "original_language": "en",
            "original_title": "What Men Want",
            "genre_ids": [
                35,
                14,
                10749
            ],
            "backdrop_path": "/umecegsPpKr2ZXA62Da9CQBVoIO.jpg",
            "adult": false,
            "overview": "Magically able to hear what men are thinking, a sports agent uses her newfound ability to turn the tables on her overbearing male colleagues.",
            "release_date": "2019-02-08"
        },
        {
            "vote_count": 661,
            "id": 457799,
            "video": false,
            "vote_average": 7,
            "title": "Extremely Wicked, Shockingly Evil and Vile",
            "popularity": 44.902,
            "poster_path": "/bP8T3WWpFTvyITSzetR3UCnG45M.jpg",
            "original_language": "en",
            "original_title": "Extremely Wicked, Shockingly Evil and Vile",
            "genre_ids": [
                53,
                80,
                18,
                36
            ],
            "backdrop_path": "/5yXNf13ly6kFQSbI5BZRQlDhCib.jpg",
            "adult": false,
            "overview": "A chronicle of the crimes of Ted Bundy, from the perspective of his longtime girlfriend, Elizabeth Kloepfer, who refused to believe the truth about him for years.",
            "release_date": "2019-05-02"
        }
    ],
    "page": 1,
    "total_results": 958,
    "dates": {
        "maximum": "2019-06-04",
        "minimum": "2019-04-17"
    },
    "total_pages": 48
}
